[gd_resource type="DynamicFont" load_steps=2 format=2]

[ext_resource path="res://assets/fonts/Caveat_Brush/CaveatBrush-Regular.ttf" type="DynamicFontData" id=1]

[resource]
size = 18
outline_size = 1
outline_color = Color( 0.14902, 0.129412, 0.0156863, 1 )
use_filter = true
font_data = ExtResource( 1 )
