[gd_scene load_steps=7 format=2]

[ext_resource path="res://data/maps/triggers/death.gd" type="Script" id=1]
[ext_resource path="res://data/tilesets/outside.tres" type="TileSet" id=2]
[ext_resource path="res://data/entities/beings/officer.tscn" type="PackedScene" id=3]
[ext_resource path="res://data/maps/triggers/exit.tscn" type="PackedScene" id=4]

[sub_resource type="RectangleShape2D" id=1]
extents = Vector2( 84.0297, 10 )

[sub_resource type="RectangleShape2D" id=2]
extents = Vector2( 10, 159.854 )

[node name="outside" type="Node2D"]

[node name="backdrop" type="TileMap" parent="."]
tile_set = ExtResource( 2 )
cell_size = Vector2( 32, 32 )
collision_layer = 0
collision_mask = 0
format = 1
tile_data = PoolIntArray( 65539, 1, 0, 65540, 1, 1, 65541, 1, 1, 65542, 1, 1, 65543, 1, 1, 65544, 1, 1, 65545, 1, 1, 65546, 1, 1, 65547, 1, 2, 131075, 536870913, 65537, 131076, 1, 65537, 131077, 1, 65537, 131078, 1, 65537, 131079, 1, 65537, 131080, 1, 65537, 131081, 1, 65537, 131082, 1, 65537, 131083, 536870913, 65537, 196611, 536870913, 65537, 196612, 1, 65537, 196613, 1, 65537, 196614, 1, 65537, 196615, 1, 65537, 196616, 1, 65537, 196617, 1, 65537, 196618, 1, 65537, 196619, 536870913, 65537, 262147, 536870913, 65537, 262148, 1, 65537, 262149, 1, 65537, 262150, 1, 65537, 262151, 1, 65537, 262152, 1, 65537, 262153, 1, 65537, 262154, 1, 65537, 262155, 536870913, 65537, 393212, 1, 65537, 393213, 1, 65537, 393214, 1, 65537, 393215, 1, 65537, 327683, 1, 131072, 327684, 1, 131073, 327685, 1, 131073, 327686, 1, 131073, 327687, 1, 131073, 327688, 1, 131073, 327689, 1, 131073, 327690, 1, 131073, 327691, 1, 131074 )
__meta__ = {
"_edit_lock_": true
}

[node name="decorative" type="TileMap" parent="."]
tile_set = ExtResource( 2 )
cell_size = Vector2( 32, 32 )
collision_layer = 0
collision_mask = 0
format = 1
tile_data = PoolIntArray( 65539, 1, 0, 65540, 1, 1, 65541, 1, 1, 65542, 1, 1, 65543, 1, 1, 65544, 1, 1, 65545, 1, 1, 65546, 1, 1, 65547, 1, 2, 196614, 2, 0, 262150, 3, 0, 393215, 0, 65537, 327690, 1, 131072, 327691, 1, 131074, 327692, 0, 65537 )
__meta__ = {
"_edit_lock_": true
}

[node name="stage" type="TileMap" parent="."]
tile_set = ExtResource( 2 )
cell_size = Vector2( 32, 32 )
collision_layer = 3
collision_mask = 3
format = 1
tile_data = PoolIntArray( -1376229, 0, 0, -1376228, 0, 2, -1310693, 0, 65536, -1310692, 0, 65538, -1245157, 0, 65536, -1245156, 0, 65538, -1179621, 0, 65536, -1179620, 0, 65538, -1114085, 0, 65536, -1114084, 0, 65538, -1048549, 0, 65536, -1048548, 0, 65537, -983013, 0, 65536, -983012, 0, 65537, -983002, 0, 65537, -917477, 0, 65536, -917476, 0, 65537, -917466, 0, 65537, -851941, 0, 65536, -851940, 0, 65537, -851930, 0, 65537, -786405, 0, 65536, -786404, 0, 65538, -786394, 0, 65537, -720869, 0, 65536, -720868, 0, 65538, -655333, 0, 65536, -655332, 0, 65538, -524292, 0, 0, -524291, 0, 2, -589799, 0, 0, -589798, 0, 1, -589797, 0, 65537, -589796, 0, 65538, -458756, 0, 65536, -458755, 0, 65538, -524264, 0, 0, -524263, 0, 65537, -524262, 0, 65537, -524261, 0, 65537, -524260, 0, 65538, -393221, 0, 0, -393220, 0, 65537, -393219, 0, 65537, -393218, 0, 2, -458728, 0, 65536, -458727, 0, 65537, -458726, 0, 65537, -458725, 0, 65537, -458724, 0, 65538, -327685, 0, 65536, -327684, 0, 65537, -327683, 0, 65537, -327682, 0, 65538, -393192, 0, 65536, -393191, 0, 65537, -393190, 0, 65537, -393189, 0, 65537, -393188, 0, 65538, -262149, 0, 65536, -262148, 0, 65537, -262147, 0, 65537, -262146, 0, 65538, -327657, 0, 0, -327656, 0, 65537, -327655, 0, 65537, -327654, 0, 65537, -327653, 0, 65537, -327652, 0, 65538, -196613, 0, 65536, -196612, 0, 65537, -196611, 0, 65537, -196610, 0, 65537, -196609, 0, 2, -262121, 0, 65536, -262120, 0, 65537, -262119, 0, 65537, -262118, 0, 65537, -262117, 0, 65537, -262116, 0, 65538, -131077, 0, 65536, -131076, 0, 65537, -131075, 0, 65537, -131074, 0, 65537, -131073, 0, 65538, -196586, 0, 0, -196585, 0, 65537, -196584, 0, 65537, -196583, 0, 65537, -196582, 0, 65537, -196581, 0, 65537, -196580, 0, 65538, -196562, 0, 0, -196561, 0, 1, -196560, 0, 1, -196559, 0, 1, -196558, 0, 1, -196557, 0, 1, -196556, 0, 1, -196555, 0, 1, -196554, 0, 1, -196553, 0, 1, -196552, 0, 1, -196551, 0, 1, -196550, 0, 1, -196549, 0, 2, -65542, 0, 0, -65541, 0, 65537, -65540, 0, 65537, -65539, 0, 65537, -65538, 0, 65537, -65537, 0, 65538, -131051, 0, 0, -131050, 0, 65537, -131049, 0, 65537, -131048, 0, 65537, -131047, 0, 65537, -131046, 0, 65537, -131045, 0, 65537, -131044, 0, 65538, -131026, 0, 65536, -131025, 0, 65537, -131024, 0, 65537, -131023, 0, 65537, -131022, 0, 65537, -131021, 0, 65537, -131020, 0, 65537, -131019, 0, 65537, -131018, 0, 65537, -131017, 0, 65537, -131016, 0, 65537, -131015, 0, 65537, -131014, 0, 65537, -131013, 0, 65538, -8, 0, 0, -7, 0, 1, -6, 0, 65537, -5, 0, 65537, -4, 0, 65537, -3, 0, 65537, -2, 0, 65537, -1, 0, 131074, -65516, 0, 0, -65515, 0, 65537, -65514, 0, 65537, -65513, 0, 65537, -65512, 0, 65537, -65511, 0, 65537, -65510, 0, 65537, -65509, 0, 65537, -65508, 0, 65538, -65490, 0, 65536, -65489, 0, 65537, -65488, 0, 65537, -65487, 0, 65537, -65486, 0, 65537, -65485, 0, 65537, -65484, 0, 65537, -65483, 0, 65537, -65482, 0, 65537, -65481, 0, 65537, -65480, 0, 65537, -65479, 0, 65537, -65478, 0, 65537, -65477, 0, 65538, 65526, 0, 0, 65527, 0, 1, 65528, 0, 65537, 65529, 0, 65537, 65530, 0, 65537, 65531, 0, 65537, 65532, 0, 65537, 65533, 0, 65537, 65534, 0, 65538, 20, 0, 65536, 21, 0, 65537, 22, 0, 65537, 23, 0, 65537, 24, 0, 65537, 25, 0, 65537, 26, 0, 65537, 27, 0, 65537, 28, 0, 65538, 46, 0, 65536, 47, 0, 65537, 48, 0, 65537, 49, 0, 65537, 50, 0, 65537, 51, 0, 65537, 52, 0, 65537, 53, 0, 65537, 54, 0, 65537, 55, 0, 65537, 56, 0, 65537, 57, 0, 65537, 58, 0, 65537, 59, 0, 65538, 68, 0, 0, 69, 0, 2, 131060, 0, 0, 131061, 0, 1, 131062, 0, 65537, 131063, 0, 65537, 131064, 0, 65537, 131065, 0, 65537, 131066, 0, 65537, 131067, 0, 65537, 131068, 0, 65537, 131069, 0, 65537, 131070, 0, 65538, 65556, 0, 65536, 65557, 0, 65537, 65558, 0, 65537, 65559, 0, 65537, 65560, 0, 65537, 65561, 0, 65537, 65562, 0, 65537, 65563, 0, 65537, 65564, 0, 65538, 65574, 0, 65537, 65582, 0, 65536, 65583, 0, 65537, 65584, 0, 65537, 65585, 0, 65537, 65586, 0, 65537, 65587, 0, 65537, 65588, 0, 65537, 65589, 0, 65537, 65590, 0, 65537, 65591, 0, 65537, 65592, 0, 65537, 65593, 0, 65537, 65594, 0, 65537, 65595, 0, 65538, 65604, 0, 65536, 65605, 0, 65538, 196595, 0, 0, 196596, 0, 65537, 196597, 0, 65537, 196598, 0, 65537, 196599, 0, 65537, 196600, 0, 65537, 196601, 0, 65537, 196602, 0, 65537, 196603, 0, 65537, 196604, 0, 131073, 196605, 0, 131073, 196606, 0, 131074, 131091, 0, 0, 131092, 0, 65537, 131093, 0, 65537, 131094, 0, 65537, 131095, 0, 65537, 131096, 0, 65537, 131097, 0, 65537, 131098, 0, 65537, 131099, 0, 65537, 131100, 0, 65538, 131110, 0, 65537, 131118, 0, 131072, 131119, 0, 131073, 131120, 0, 131073, 131121, 0, 131073, 131122, 0, 131073, 131123, 0, 65537, 131124, 0, 65537, 131125, 0, 65537, 131126, 0, 65537, 131127, 0, 65537, 131128, 0, 65537, 131129, 0, 65537, 131130, 0, 65537, 131131, 0, 131074, 131140, 0, 65536, 131141, 0, 65538, 262130, 0, 0, 262131, 0, 65537, 262132, 0, 65537, 262133, 0, 131073, 262134, 0, 131073, 262135, 0, 131073, 262136, 0, 131073, 262137, 0, 131073, 262138, 0, 131073, 262139, 0, 131074, 196626, 0, 0, 196627, 0, 65537, 196628, 0, 65537, 196629, 0, 65537, 196630, 0, 65537, 196631, 0, 65537, 196632, 0, 65537, 196633, 0, 65537, 196634, 0, 65537, 196635, 0, 65537, 196636, 0, 65538, 196646, 0, 65537, 196659, 0, 131072, 196660, 0, 131073, 196661, 0, 131073, 196662, 0, 65537, 196663, 0, 65537, 196664, 0, 65537, 196665, 0, 65537, 196666, 0, 65538, 196676, 0, 65536, 196677, 0, 65538, 327666, 0, 65536, 327667, 0, 65537, 327668, 0, 65538, 262162, 0, 65536, 262163, 0, 65537, 262164, 0, 65537, 262165, 0, 65537, 262166, 0, 65537, 262167, 0, 65537, 262168, 0, 65537, 262169, 0, 65537, 262170, 0, 65537, 262171, 0, 65537, 262172, 0, 65538, 262182, 0, 65537, 262198, 0, 131072, 262199, 0, 131073, 262200, 0, 131073, 262201, 0, 131073, 262202, 0, 131074, 262212, 0, 65536, 262213, 0, 65538, 393202, 0, 65536, 393203, 0, 65537, 393204, 0, 65537, 393205, 0, 1, 393206, 0, 1, 393207, 0, 1, 393208, 0, 1, 393209, 0, 1, 393210, 0, 1, 393211, 0, 1, 393212, 0, 1, 393213, 0, 1, 393214, 0, 1, 393215, 0, 1, 327680, 0, 1, 327681, 0, 1, 327682, 0, 1, 327683, 0, 1, 327684, 0, 1, 327685, 0, 1, 327686, 0, 1, 327687, 0, 1, 327688, 0, 1, 327689, 0, 1, 327690, 0, 1, 327691, 0, 1, 327692, 0, 1, 327693, 0, 1, 327694, 0, 1, 327695, 0, 1, 327696, 0, 1, 327697, 0, 1, 327698, 0, 1, 327699, 0, 1, 327700, 0, 65537, 327701, 0, 65537, 327702, 0, 65537, 327703, 0, 65537, 327704, 0, 65537, 327705, 0, 65537, 327706, 0, 65537, 327707, 0, 65537, 327708, 0, 65538, 327748, 0, 65536, 327749, 0, 65538, 458737, 0, 65537, 458738, 0, 65536, 458739, 0, 65537, 458740, 0, 65537, 458741, 0, 65537, 458742, 0, 65537, 458743, 0, 65537, 458744, 0, 65537, 458745, 0, 65537, 458746, 0, 65537, 458747, 0, 65537, 458748, 0, 65537, 458749, 0, 65537, 458750, 0, 65537, 458751, 0, 65537, 393216, 0, 65537, 393217, 0, 65537, 393218, 0, 65537, 393219, 0, 65537, 393220, 0, 65537, 393221, 0, 65537, 393222, 0, 65537, 393223, 0, 65537, 393224, 0, 65537, 393225, 0, 65537, 393226, 0, 65537, 393227, 0, 65537, 393228, 0, 65537, 393229, 0, 65537, 393230, 0, 65537, 393231, 0, 65537, 393232, 0, 65537, 393233, 0, 65537, 393234, 0, 65537, 393235, 0, 65537, 393236, 0, 65537, 393237, 0, 65537, 393238, 0, 65537, 393239, 0, 1, 393240, 0, 1, 393241, 0, 1, 393242, 0, 65537, 393243, 0, 65537, 393244, 0, 65537, 393245, 0, 2, 393259, 0, 0, 393260, 0, 1, 393261, 0, 1, 393262, 0, 1, 393263, 0, 1, 393264, 0, 1, 393265, 0, 1, 393266, 0, 1, 393267, 0, 1, 393268, 0, 1, 393269, 0, 1, 393270, 0, 1, 393271, 0, 1, 393272, 0, 1, 393273, 0, 1, 393274, 0, 1, 393275, 0, 1, 393276, 0, 1, 393277, 0, 1, 393278, 0, 1, 393279, 0, 1, 393280, 0, 1, 393281, 0, 1, 393282, 0, 1, 393283, 0, 1, 393284, 0, 65537, 393285, 0, 65538, 524274, 0, 65536, 524275, 0, 65537, 524276, 0, 65537, 524277, 0, 65537, 524278, 0, 65537, 524279, 0, 65537, 524280, 0, 65537, 524281, 0, 65537, 524282, 0, 65537, 524283, 0, 65537, 524284, 0, 65537, 524285, 0, 65537, 524286, 0, 65537, 524287, 0, 65537, 458752, 0, 65537, 458753, 0, 65537, 458754, 0, 65537, 458755, 0, 65537, 458756, 0, 65537, 458757, 0, 65537, 458758, 0, 65537, 458759, 0, 65537, 458760, 0, 65537, 458761, 0, 65537, 458762, 0, 65537, 458763, 0, 65537, 458764, 0, 65537, 458765, 0, 65537, 458766, 0, 65537, 458767, 0, 65537, 458768, 0, 65537, 458769, 0, 65537, 458770, 0, 65537, 458771, 0, 65537, 458772, 0, 65537, 458773, 0, 65537, 458774, 0, 65537, 458775, 0, 65537, 458776, 0, 65537, 458777, 0, 65537, 458778, 0, 65537, 458779, 0, 65537, 458780, 0, 65537, 458781, 0, 65537, 458782, 0, 1, 458783, 0, 1, 458784, 0, 1, 458785, 0, 1, 458786, 0, 1, 458787, 0, 1, 458788, 0, 1, 458789, 0, 1, 458790, 0, 2, 458794, 0, 0, 458795, 0, 65537, 458796, 0, 65537, 458797, 0, 65537, 458798, 0, 65537, 458799, 0, 65537, 458800, 0, 65537, 458801, 0, 65537, 458802, 0, 65537, 458803, 0, 65537, 458804, 0, 65537, 458805, 0, 65537, 458806, 0, 65537, 458807, 0, 65537, 458808, 0, 65537, 458809, 0, 65537, 458810, 0, 65537, 458811, 0, 65537, 458812, 0, 65537, 458813, 0, 65537, 458814, 0, 65537, 458815, 0, 65537, 458816, 0, 65537, 458817, 0, 65537, 458818, 0, 65537, 458819, 0, 65537, 458820, 0, 65537, 458821, 0, 65538, 589810, 0, 65536, 589811, 0, 65537, 589812, 0, 65537, 589813, 0, 65537, 589814, 0, 65537, 589815, 0, 65537, 589816, 0, 65537, 589817, 0, 65537, 589818, 0, 65537, 589819, 0, 65537, 589820, 0, 65537, 589821, 0, 65537, 589822, 0, 65537, 589823, 0, 65537, 524288, 0, 65537, 524289, 0, 65537, 524290, 0, 65537, 524291, 0, 65537, 524292, 0, 65537, 524293, 0, 65537, 524294, 0, 65537, 524295, 0, 65537, 524296, 0, 65537, 524297, 0, 65537, 524298, 0, 65537, 524299, 0, 65537, 524300, 0, 65537, 524301, 0, 65537, 524302, 0, 65537, 524303, 0, 65537, 524304, 0, 65537, 524305, 0, 65537, 524306, 0, 65537, 524307, 0, 65537, 524308, 0, 65537, 524309, 0, 65537, 524310, 0, 65537, 524311, 0, 65537, 524312, 0, 65537, 524313, 0, 65537, 524314, 0, 65537, 524315, 0, 65537, 524316, 0, 65537, 524317, 0, 65537, 524318, 0, 65537, 524319, 0, 65537, 524320, 0, 65537, 524321, 0, 65537, 524322, 0, 65537, 524323, 0, 65537, 524324, 0, 65537, 524325, 0, 65537, 524326, 0, 65538, 524330, 0, 65536, 524331, 0, 65537, 524332, 0, 65537, 524333, 0, 65537, 524334, 0, 65537, 524335, 0, 65537, 524336, 0, 65537, 524337, 0, 65537, 524338, 0, 65537, 524339, 0, 65537, 524340, 0, 65537, 524341, 0, 65537, 524342, 0, 65537, 524343, 0, 65537, 524344, 0, 65537, 524345, 0, 65537, 524346, 0, 65537, 524347, 0, 65537, 524348, 0, 65537, 524349, 0, 65537, 524350, 0, 65537, 524351, 0, 65537, 524352, 0, 65537, 524353, 0, 65537, 524354, 0, 65537, 524355, 0, 65537, 524356, 0, 65537, 524357, 0, 65538, 655346, 0, 131072, 655347, 0, 131073, 655348, 0, 131073, 655349, 0, 131073, 655350, 0, 131073, 655351, 0, 131073, 655352, 0, 65537, 655353, 0, 65537, 655354, 0, 65537, 655355, 0, 131073, 655356, 0, 131073, 655357, 0, 131073, 655358, 0, 131073, 655359, 0, 131073, 589824, 0, 131073, 589825, 0, 131073, 589826, 0, 131073, 589827, 0, 131073, 589828, 0, 131073, 589829, 0, 131073, 589830, 0, 131073, 589831, 0, 131073, 589832, 0, 131073, 589833, 0, 131073, 589834, 0, 131073, 589835, 0, 131073, 589836, 0, 131073, 589837, 0, 131073, 589838, 0, 131073, 589839, 0, 131073, 589840, 0, 131073, 589841, 0, 131073, 589842, 0, 131073, 589843, 0, 131073, 589844, 0, 131073, 589845, 0, 131073, 589846, 0, 131073, 589847, 0, 131073, 589848, 0, 131073, 589849, 0, 131073, 589850, 0, 131073, 589851, 0, 131073, 589852, 0, 131073, 589853, 0, 131073, 589854, 0, 131073, 589855, 0, 131073, 589856, 0, 131073, 589857, 0, 131073, 589858, 0, 131073, 589859, 0, 65537, 589860, 0, 65537, 589861, 0, 65537, 589862, 0, 65538, 589866, 0, 65536, 589867, 0, 65537, 589868, 0, 65537, 589869, 0, 65537, 589870, 0, 131073, 589871, 0, 131073, 589872, 0, 131073, 589873, 0, 131073, 589874, 0, 131073, 589875, 0, 131073, 589876, 0, 131073, 589877, 0, 131073, 589878, 0, 131073, 589879, 0, 131073, 589880, 0, 131073, 589881, 0, 131073, 589882, 0, 131073, 589883, 0, 131073, 589884, 0, 131073, 589885, 0, 131073, 589886, 0, 131073, 589887, 0, 131073, 589888, 0, 131073, 589889, 0, 131073, 589890, 0, 131073, 589891, 0, 131073, 589892, 0, 131073, 589893, 0, 131074, 720888, 0, 131072, 720889, 0, 131073, 720890, 0, 131074, 655395, 0, 131072, 655396, 0, 65537, 655397, 0, 65537, 655398, 0, 65538, 655402, 0, 65536, 655403, 0, 65537, 655404, 0, 65537, 655405, 0, 131074, 720932, 0, 65536, 720933, 0, 65537, 720934, 0, 65538, 720938, 0, 65536, 720939, 0, 65537, 720940, 0, 65538, 786468, 0, 65536, 786469, 0, 65537, 786470, 0, 65538, 786474, 0, 65536, 786475, 0, 65537, 786476, 0, 65538, 852004, 0, 65536, 852005, 0, 65537, 852006, 0, 65538, 852010, 0, 65536, 852011, 0, 65537, 852012, 0, 65538, 917540, 0, 65536, 917541, 0, 65537, 917542, 0, 65538, 917546, 0, 65536, 917547, 0, 65537, 917548, 0, 65538, 983076, 0, 65536, 983077, 0, 65537, 983078, 0, 65538, 983082, 0, 65536, 983083, 0, 65537, 983084, 0, 65538, 1048612, 0, 65536, 1048613, 0, 65537, 1048614, 0, 65538, 1048618, 0, 65536, 1048619, 0, 65537, 1048620, 0, 65538, 1114148, 0, 131072, 1114149, 0, 131073, 1114150, 0, 131074, 1114154, 0, 131072, 1114155, 0, 131073, 1114156, 0, 131074 )
__meta__ = {
"_edit_lock_": true
}

[node name="officer" parent="stage" instance=ExtResource( 3 )]
position = Vector2( 971.153, 193.506 )
is_sociable = true

[node name="triggers" type="Node2D" parent="."]

[node name="entrance 0" type="Node2D" parent="triggers"]
position = Vector2( -100.893, 146.388 )

[node name="entrance 1" type="Node2D" parent="triggers"]
position = Vector2( 209.027, 148.434 )

[node name="exit" parent="triggers" instance=ExtResource( 4 )]
position = Vector2( 209.068, 143.197 )
next_map_name = "inside house"
depthward_entryway = true

[node name="exit2" parent="triggers" instance=ExtResource( 4 )]
position = Vector2( -208.201, 140.106 )
next_map_name = "inside cliff"
next_entrance_number = 1

[node name="death plane" type="Area2D" parent="triggers"]
position = Vector2( 1294.54, 338.27 )
script = ExtResource( 1 )

[node name="CollisionShape2D" type="CollisionShape2D" parent="triggers/death plane"]
shape = SubResource( 1 )

[node name="stage limit west" type="StaticBody2D" parent="."]
position = Vector2( -277.588, 115.361 )

[node name="CollisionShape2D" type="CollisionShape2D" parent="stage limit west"]
shape = SubResource( 2 )
